%YAML 1.1
%TAG !u! tag:unity3d.com,2011:
--- !u!114 &11400000
MonoBehaviour:
  m_ObjectHideFlags: 0
  m_CorrespondingSourceObject: {fileID: 0}
  m_PrefabInstance: {fileID: 0}
  m_PrefabAsset: {fileID: 0}
  m_GameObject: {fileID: 0}
  m_Enabled: 1
  m_EditorHideFlags: 0
  m_Script: {fileID: 11500000, guid: 132bc1e5ecb84ff4ea38cf8ab4d8a09c, type: 3}
  m_Name: GreenShellPowerUp
  m_EditorClassIdentifier: 
  Target: 1
  DefaultDirection: 0
  DirectionsAllowed: 0000000003000000
  Amount: 1
  Duration: 1
  CooldownUsage: 0.5
  RotatorModel: []
  m_PowerupSprite: {fileID: 21300000, guid: 357c9aaa7c4c5c34bbf70f6da4eecc21, type: 3}
  GreenShellObject: {fileID: 3487055191464550845, guid: 2deafb39dc7a7624eb45c38c389702d8,
    type: 3}
