%YAML 1.1
%TAG !u! tag:unity3d.com,2011:
--- !u!1 &7929681406140902608
GameObject:
  m_ObjectHideFlags: 0
  m_CorrespondingSourceObject: {fileID: 0}
  m_PrefabInstance: {fileID: 0}
  m_PrefabAsset: {fileID: 0}
  serializedVersion: 6
  m_Component:
  - component: {fileID: 5900376622071861644}
  - component: {fileID: 8463321613628479368}
  m_Layer: 8
  m_Name: PREF_ModulaTrack_CurveMedium
  m_TagString: Untagged
  m_Icon: {fileID: 0}
  m_NavMeshLayer: 0
  m_StaticEditorFlags: 0
  m_IsActive: 1
--- !u!4 &5900376622071861644
Transform:
  m_ObjectHideFlags: 0
  m_CorrespondingSourceObject: {fileID: 0}
  m_PrefabInstance: {fileID: 0}
  m_PrefabAsset: {fileID: 0}
  m_GameObject: {fileID: 7929681406140902608}
  m_LocalRotation: {x: 0, y: 0, z: 0, w: 1}
  m_LocalPosition: {x: 0, y: 0, z: 0}
  m_LocalScale: {x: 1, y: 1, z: 1}
  m_Children:
  - {fileID: 9096289310145169517}
  m_Father: {fileID: 0}
  m_RootOrder: 0
  m_LocalEulerAnglesHint: {x: 0, y: 0, z: 0}
--- !u!64 &8463321613628479368
MeshCollider:
  m_ObjectHideFlags: 0
  m_CorrespondingSourceObject: {fileID: 0}
  m_PrefabInstance: {fileID: 0}
  m_PrefabAsset: {fileID: 0}
  m_GameObject: {fileID: 7929681406140902608}
  m_Material: {fileID: 0}
  m_IsTrigger: 0
  m_Enabled: 1
  serializedVersion: 3
  m_Convex: 0
  m_CookingOptions: 14
  m_Mesh: {fileID: 3735169553628255807, guid: 74c6d43b17a0dca47988794b538f0342, type: 3}
--- !u!1001 &4271160809569870711
PrefabInstance:
  m_ObjectHideFlags: 0
  serializedVersion: 2
  m_Modification:
    m_TransformParent: {fileID: 5900376622071861644}
    m_Modifications:
    - target: {fileID: -927199367670048503, guid: 74c6d43b17a0dca47988794b538f0342,
        type: 3}
      propertyPath: m_Name
      value: SM_ModularTrackCurveMediumLeft
      objectReference: {fileID: 0}
    - target: {fileID: -4216859302048453862, guid: 74c6d43b17a0dca47988794b538f0342,
        type: 3}
      propertyPath: m_LocalPosition.x
      value: -0
      objectReference: {fileID: 0}
    - target: {fileID: -4216859302048453862, guid: 74c6d43b17a0dca47988794b538f0342,
        type: 3}
      propertyPath: m_LocalPosition.y
      value: 0
      objectReference: {fileID: 0}
    - target: {fileID: -4216859302048453862, guid: 74c6d43b17a0dca47988794b538f0342,
        type: 3}
      propertyPath: m_LocalPosition.z
      value: 0
      objectReference: {fileID: 0}
    - target: {fileID: -4216859302048453862, guid: 74c6d43b17a0dca47988794b538f0342,
        type: 3}
      propertyPath: m_LocalRotation.x
      value: 0
      objectReference: {fileID: 0}
    - target: {fileID: -4216859302048453862, guid: 74c6d43b17a0dca47988794b538f0342,
        type: 3}
      propertyPath: m_LocalRotation.y
      value: -0
      objectReference: {fileID: 0}
    - target: {fileID: -4216859302048453862, guid: 74c6d43b17a0dca47988794b538f0342,
        type: 3}
      propertyPath: m_LocalRotation.z
      value: -0
      objectReference: {fileID: 0}
    - target: {fileID: -4216859302048453862, guid: 74c6d43b17a0dca47988794b538f0342,
        type: 3}
      propertyPath: m_LocalRotation.w
      value: 1
      objectReference: {fileID: 0}
    - target: {fileID: -4216859302048453862, guid: 74c6d43b17a0dca47988794b538f0342,
        type: 3}
      propertyPath: m_RootOrder
      value: 0
      objectReference: {fileID: 0}
    - target: {fileID: -4216859302048453862, guid: 74c6d43b17a0dca47988794b538f0342,
        type: 3}
      propertyPath: m_LocalEulerAnglesHint.x
      value: 0
      objectReference: {fileID: 0}
    - target: {fileID: -4216859302048453862, guid: 74c6d43b17a0dca47988794b538f0342,
        type: 3}
      propertyPath: m_LocalEulerAnglesHint.y
      value: 0
      objectReference: {fileID: 0}
    - target: {fileID: -4216859302048453862, guid: 74c6d43b17a0dca47988794b538f0342,
        type: 3}
      propertyPath: m_LocalEulerAnglesHint.z
      value: 0
      objectReference: {fileID: 0}
    - target: {fileID: -1504981713932161579, guid: 74c6d43b17a0dca47988794b538f0342,
        type: 3}
      propertyPath: m_Materials.Array.data[0]
      value: 
      objectReference: {fileID: 2100000, guid: 19a726f5c0c77724b8ebcad48314fc42, type: 2}
    - target: {fileID: -5450127179023510999, guid: 74c6d43b17a0dca47988794b538f0342,
        type: 3}
      propertyPath: m_Materials.Array.data[0]
      value: 
      objectReference: {fileID: 2100000, guid: 23180bf718e21074eb43868420793efc, type: 2}
    m_RemovedComponents: []
  m_SourcePrefab: {fileID: 100100000, guid: 74c6d43b17a0dca47988794b538f0342, type: 3}
--- !u!4 &9096289310145169517 stripped
Transform:
  m_CorrespondingSourceObject: {fileID: -4216859302048453862, guid: 74c6d43b17a0dca47988794b538f0342,
    type: 3}
  m_PrefabInstance: {fileID: 4271160809569870711}
  m_PrefabAsset: {fileID: 0}
